{
"SKWAEURD/SKWAEURD": "{^²}",
"SKWAEUR/SKWAEUR": "{^²}",
"SH/WA*": "{^ə^}",
"SUB/2": "{^₂}",
"SUB/3": "{^₃}",
"SUB/4": "{^₄}",
"SUB/0": "{^₀}",
"TKEG": "{^°}",
"T-PL/T-PL": "{^}™",
"KAOUBD/KAOUBD": "{^³}",
"KAOUB/KAOUB": "{^³}",
"KO*EP/KO*EP": "{^}©",
"P*PL": "{^}..{^}",
"REPBLG": "{^}®",
"OEPL/OEPL": "{^}Ω"
}
